docnl,grn,docn,year,file,date,from,public
ST-5980/4/11-REV4,5980/11,5980/4/11,2011,Council-Communication-2011-02.pdf,2/15/2011,Presidency,
ST-5980/4/11-REV4-COR1,5980/11,5980/4/11-C1,2011,Council-Communication-2011-02-corr1.pdf,2/16/2011,Presidency,
ST-5853/12,5853/12,5853/12,2012,ST_5853_2012_ADD_1_EN.pdf,1/27/2012,European Commission,PUB
ST-5853/12,5853/12,5853/12,2012,ST_5853_2012_INIT_EN.pdf,1/27/2012,European Commission,PUB
ST-6911/12,6911/12,6911/12,2012,2012-0011-DP-Regulation-EDPS-ST06911.EN12.pdf,2/24/2012,Secretariat,PUB-OV
ST-6911/12,6911/12,6911/12,2012,ST_6911_2012_INIT_EN.pdf,2/24/2012,Secretariat,PUB
ST-6912/12,6912/12,6912/12,2012,2012-0010-DP-Directive-Edps-ST06912.EN12.pdf,2/24/2012,Secretariat,
ST-7375/12,7375/12,7375/12,2012,ST_7375_2012_INIT_EN.pdf,3/8/2012,Secretariat,PUB
ST-7455/12,7455/12,7455/12,2012,ST_7455_2012_INIT_EN.pdf,3/9/2012,Secretariat,PUB
ST-7568/12,7568/12,7568/12,2012,2012-0010-DirectiveDP-ST07568.EN12.pdf,3/26/2012,Presidency,
ST-8366/12,8366/12,8366/12,2012,ST_8366_2012_INIT_EN.pdf,3/30/2012,Secretariat,PUB
ST-8596/12,8596/12,8596/12,2012,2012-0010-DP-Directive-OP-CATS-03-04-12-ST08596.EN12.pdf,4/13/2012,Presidency,
ST-8699/12,8699/12,8699/12,2012,ST_8699_2012_INIT_EN.pdf,4/13/2012,Presidency,PUB
ST-9897/12,9897/12,9897/12,2012,MS comments on chapters I-II.pdf,5/21/2012,Secretariat,
ST-9897/1/12-REV1,9897/12,9897/1/12,2012,2012-0011-DataProtection-ST09897-RE01.EN12.pdf,5/24/2012,Secretariat,
ST-11326/12,11326/12,11326/12,2012,Council_revised-dp-position_2012-06-22.pdf,6/22/2012,Presidency,PUB-OV
ST-11326/12,11326/12,11326/12,2012,ST_11326_2012_COR_2_EN.pdf,6/22/2012,Presidency,PUB
ST-12388/12,12388/12,12388/12,2012,2012-0011-DPRegulation-EESC-Opinion-ST12388.EN12.pdf,7/11/2012,EESC,PUB-OV
ST-12388/12,12388/12,12388/12,2012,ST_12388_2012_INIT_EN.pdf,7/11/2012,EESC,PUB
CM-3942/12,3942/12,3942/12,2012,2012-011-DP-Regulation-requestcontribution-CM03942.EN12.pdf,7/13/2012,Secretariat,
CM-3944/12,3944/12,3944/12,2012,2012-0011-DP-Regulation-Contribution-CM03944.EN12.pdf,7/13/2012,Secretariat,
ST-9897/2/12-REV2,9897/12,9897/2/12,2012,DP-Regulation_comments-member-states_chapter I-II_2012-07-18.pdf,7/18/2012,Secretariat,
ST-9897/2/12-REV2,9897/12,9897/2/12,2012,2012-0011-DataProtectionRegulation-ST09897-RE02.EN12.pdf,7/18/2012,Secretariat,
ST-12918/12,12918/12,12918/12,2012,ST_12918_2012_INIT_EN.pdf,9/7/2012,Presidency,PUB
ST-12918/1/12-REV1,12918/12,12918/1/12,2012,2012-0011-DP-Regulation-Questionnaire-ST12918-RE01.EN12.pdf,9/24/2012,Presidency,PUB-OV
ST-12918/1/12-REV1,12918/12,12918/1/12,2012,ST_12918_2012_REV_1_EN.pdf,9/24/2012,Presidency,PUB
CM-4718/12,4718/12,4718/12,2012,2012-0010-DP-Directive-CM04718.EN12.pdf,10/3/2012,Secretariat,
ST-14731/12,14731/12,14731/12,2012,2012-0011-DataProtectionReform-ST14731.EN12.pdf,10/9/2012,Secretariat,PUB-OV
ST-14731/12,14731/12,14731/12,2012,ST_14731_2012_INIT_EN.pdf,10/9/2012,Secretariat,PUB
ST-14147/1/12-REV 1,14147/12,14147/1/12,2012,DP-Regulation_comments-member-states_chapter III_2012-10-10.pdf,10/10/2012,Secretariat,
ST-14147/1/12-REV 1,14147/12,14147/1/12,2012,MS comments on chapters III-parts IV.pdf,10/10/2012,Secretariat,
ST-14609/12,14609/12,14609/12,2012,FoP DA and IA 121012.pdf,10/10/2012,Secretariat,
ST-14609/1/12-REV1,14609/12,14609/1/12,2012,DP-Regulation_comments-member-states_delegated implementing acts_2012-10-11.pdf,10/11/2012,Secretariat,
ST-14609/1/12-REV1,14609/12,14609/1/12,2012,2012-0011-DP-Regulation-ST14609-RE01.EN12.pdf,10/11/2012,Secretariat,
ST-14609/3/12-REV3,14609/12,14609/3/12,2012,2012-0011-DataProtection-RepliesDelegatedActs-ST14609-RE03.EN12.pdf,10/30/2012,Secretariat,
ST-14609/4/12-REV4,14609/12,14609/4/12,2012,2012-0011-DP-Regulation-DelegatedActsMSreplies-ST14609-RE04.EN12.pdf,11/6/2012,Secretariat,
ST-14946/12,14946/12,14946/12,2012,2012-0011-DP-RegulationQuestionnaireDelegatedActs-ST14946.EN12.pdf,11/6/2012,Presidency,PUB-OV
ST-14946/12,14946/12,14946/12,2012,ST_14946_2012_INIT_EN.pdf,11/6/2012,Presidency,PUB
ST-15996/12,15996/12,15996/12,2012,2012-0011-DataProtRegulationDelegatedActs-ST15996.EN12.pdf,11/9/2012,FRA,
ST-15996/12,15996/12,15996/12,2012,2012-0011-DP-Regulation-FR-ST15996.EN12.pdf,11/9/2012,FRA,
ST-14609/5/12-REV5,14609/12,14609/5/12,2012,2012-0011-DP-Regulation-DelegatedActsReplies-ST14609-RE05.EN12.pdf,11/12/2012,Secretariat,
ST-15703/2/12-REV2,15703/12,15703/2/12,2012,2012-0011-DP-Regulation-AdministrativeBurdens-ST15703-RE02.EN12.pdf,11/12/2012,Secretariat,
ST-15703/3/12-REV3,15703/12,15703/3/12,2012,2012-0011-DP-RegAdministrativeBurdens-ST15703-RE03.EN12.pdf,11/15/2012,Secretariat,
ST-15703/3/12-REV3,15703/12,15703/3/12,2012,2012-0011-DP-Regulation-amdinistrativeBurdens-ST15703-RE03.EN12.pdf,11/15/2012,Secretariat,
ST-15703/4/12-REV4,15703/12,15703/4/12,2012,2012-0011-DP-RegulationAdministrativeBurdens-ST15703-RE04.EN12.pdf,11/21/2012,Secretariat,
ST-16525/12,16525/12,16525/12,2012,2012-0011-DataProtection-StateOfPlay-ST16525.EN12.pdf,11/26/2012,Presidency,PUB-OV
ST-16525/12,16525/12,16525/12,2012,2012-0011-DP-Package-ProgressReport-ST16525.EN12.pdf,11/26/2012,Presidency,PUB-OV
ST-16525/12,16525/12,16525/12,2012,ST_16525_2012_INIT_EN.pdf,11/26/2012,Presidency,PUB
ST-16845/12,16845/12,16845/12,2012,st_16845_12.pdf,11/27/2012,Secretariat,
ST-16497/12,16497/12,16497/12,2012,st_16497_12.pdf,11/28/2012,Secretariat,
ST-16525/1/12-REV1,16525/12,16525/1/12,2012,2012-0011-DataProtectionStateOfPlay-ST16525-RE01.EN12.pdf,12/3/2012,Presidency,PUB-OV
ST-16525/1/12-REV1,16525/12,16525/1/12,2012,ST_16525_2012_REV_1_EN.pdf,12/3/2012,Presidency,PUB
ST-16529/12,16529/12,16529/12,2012,2012-0011-DP-Regulation-ST16529.EN12.pdf,12/4/2012,Presidency,
ST-16497/12-ADD1,16497/12,16497/12-A1,2012,st_16497/12-add1.pdf,12/6/2012,GER,
ST-16497/12-ADD2,16497/12,16497/12-A2,2012,st_16497_12-add2.pdf,12/7/2012,UK,
ST-16497/12-ADD2,16497/12,16497/12-A2,2012,2012-0010-DirectiveDP-UK-ST16497-AD02.EN12.pdf,12/7/2012,UK,
DS-1850/12,1850/12,1850/12,2012,ds_1850_12.pdf,12/17/2012,FRA,
ST-16497/12-ADD3,16497/12,16497/12-A3,2012,st_16497_12-add3.pdf,12/18/2012,DNK,
ST-14147/12-ADD1,14147/12,14147/12-A1,2012,2012-0011-DP-Regulation-Art-11-27-st14147-ad01.en12.pdf,2/25/2014,SVK,
ST-9897/12-ADD1,9897/12,9897/12-A1,2012,2012-0011-DP-Regulation-SLK-st09897-ad01.en12.pdf,2/25/2014,SVK,
ST-15730/12,15730/12,15730/12,2012,2012-0010-DP-Directive-StateOfPlay-251114-st15730.en14.pdf,11/25/2014,Presidency,
CM-1160/13,1160/13,1160/13,2013,2012-0011-RegDP-Requests-CM01160.EN13.pdf,1/15/2013,Secretariat,
ST-5545/13,5545/13,5545/13,2013,st05545.en15.pdf,1/23/2013,IRL,
ST-5702/13,5702/13,5702/13,2013,2012-0011-DP-Regulation-RiskBasedApproach-ST05702.EN13.pdf,1/28/2013,Presidency,PUB-OV
ST-5702/13,5702/13,5702/13,2013,2012-0011-DP-Regulation-RiskBased-ST05702.EN13.pdf,1/28/2013,Presidency,PUB-OV
ST-5702/13,5702/13,5702/13,2013,ST_5702_2013_INIT_EN.pdf,1/28/2013,Presidency,PUB
ST-5779/13,5779/13,5779/13,2013,2012-0011-DP-Regulation-FlexibilityPublicSector-ST05779.EN13.pdf,1/29/2013,Presidency,
ST-6000/13,6000/13,6000/13,2013,2012-0011-DP-Regulation-ComparativeTableDIR95-ST06000.EN13.pdf,2/6/2013,Secretariat,PUB-OV
ST-6000/13,6000/13,6000/13,2013,ST_6000_2013_INIT_EN.pdf,2/6/2013,Secretariat,PUB
ST-6002/13,6002/13,6002/13,2013,2012-0010-DP-Directive-ComparativeTableWithRegulation-ST06002.EN13.pdf,2/6/2013,Secretariat,
ST-6278/13,6278/13,6278/13,2013,2012-0011-DP-Regulation-MS-Comments-ST06278.EN13.pdf,2/11/2013,Secretariat,
ST-6278/13,6278/13,6278/13,2013,MS comments on chapter IV.pdf,2/11/2013,Secretariat,
ST-6413/13,6413/13,6413/13,2013,2012-0011-DP-Regulation-Art38-st06413.en13.pdf,2/13/2013,GER,
ST-6607/13,6607/13,6607/13,2013,2012-0011-DP-Regulation-RiskBasedApproach-PublicFlexibility-ST06607.en13.pdf,2/22/2013,Presidency,PUB-OV
ST-6733/13,6733/13,6733/13,2013,2012-0011-DP-Regulation-Certifications-ES-st06733.en13.pdf,2/22/2013,ESP,
ST-6814/13,6814/13,6814/13,2013,2012-0011-DP-Regulation-RightToBeForgottenPortabilityProfiling-st06814.en13.pdf,2/26/2013,Presidency,
ST-6828/13,6828/13,6828/13,2013,2012-0011-DP-RegulationChapI-II-st06828.en13.pdf,2/26/2013,Presidency,
ST-6869/13,6869/13,6869/13,2013,2012-0011-DP-Regulation-Psudonymous-st06869.en13-1.pdf,2/27/2013,Presidency,
ST-6869/13,6869/13,6869/13,2013,st06869 en13-track_GR-RB.pdf,2/27/2013,Presidency,
ST-6607/1/13-REV1,6607/13,6607/1/13,2013,2012-0011-DP-Regulation-RiskBasedApproach-st06607-re01.en13.pdf,3/1/2013,Presidency,PUB-OV
ST-7106/13,7106/13,7106/13,2013,2012-0011-DP-Regualtion-ImpactSmallCompanies-st07106.en13.pdf,3/6/2013,UK,PUB-OV
ST-7106/13,7106/13,7106/13,2013,ST_7106_2013_INIT_EN.pdf,3/6/2013,UK,PUB
ST-6723/3/13-REV3,6723/13,6723/3/13,2013,MS comments on chapter V.pdf,3/13/2013,Secretariat,
ST-6723/3/13-REV3,6723/13,6723/3/13,2013,2012-0011-DP-Regulation-ChapV-st06723-re03.en13.pdf,3/13/2013,Secretariat,
ST-7105/13,7105/13,7105/13,2013,2012-0011-DP-Regulation-ChapVi-VII-st07105.en13.pdf,3/13/2013,Delegations,PUB-OV
ST-7105/13,7105/13,7105/13,2013,MS comments on chapters VI-VII.pdf,3/13/2013,Delegations,PUB-OV
ST-6278/3/13-REV3,6278/13,6278/3/13,2013,2012-0011-DP-Regulation-st06278-re03.en13.pdf,3/14/2013,Secretariat,
ST-7565/13,7565/13,7565/13,2013,2012-0011-DP-Regulation-MainEstablisghmentConsistencyMechanism-st07565.en13-3.pdf,3/15/2013,Presidency,
ST-6723/4/13-REV4,6723/13,6723/4/13,2013,2012-0011-DP-Regulation-ChapV-st06723-re04.en13.pdf,3/25/2013,Secretariat,
ST-8004/13,8004/13,8004/13,2013,2012-0011-DP-Regulation-ChapI-IV-st08004.en13.pdf,3/27/2013,Presidency,
ST-8004/13,8004/13,8004/13,2013,2012-0011-DP-Regulation-st08004.en13-1.pdf,3/27/2013,Presidency,
ST-8004/13,8004/13,8004/13,2013,st08004.en13.pdf,3/27/2013,Presidency,
ST-7105/2/13-REV2,7105/13,7105/2/13,2013,2012-0011-DPRegulation-ChapVI-VII-st07105-re02.en13.pdf,4/11/2013,Delegations,PUB-OV
ST-7105/2/13-REV2,7105/13,7105/2/13,2013,st07105-re02 en13.pdf,4/11/2013,Delegations,PUB-OV
ST-8826/13,8826/13,8826/13,2013,st08826.en13.pdf,4/23/2013,Presidency,
ST-8825/13,8825/13,8825/13,2013,2012-0011-DP-Regulation-SpecificIssues-st08825.en13.pdf,4/24/2013,Presidency,
ST-8004/1/13-REV1,8004/13,8004/1/13,2013,2012-0011-DP-Regulation-Chap-I-III-st08004-re01 2 May 2013.pdf,5/2/2013,Presidency,
ST-8004/1/13-REV2,8004/13,8004/1/13,2013,2012-0011-DP-Regulation-Chap-I-III-st08004-re01.en13.pdf,5/3/2013,Presidency,
ST-9181/13,9181/13,9181/13,2013,2012-0011-DP-RegulationArchives-st09181.en13.pdf,5/3/2013,Presidency,
ST-8208/13,8208/13,8208/13,2013,2012-0010-0011-DP-Package-RO-st08208.en13.pdf,5/8/2013,ROM,
ST-9757/13,9757/13,9757/13,2013,2012-0011-DP-RegulationRecitals-st09757.en13.pdf,5/21/2013,FRA,
ST-9398/1/13-REV1,9398/13,9398/1/13,2013,2012-0011-DP-Regulation-ChapI-IV-st09398-re01.en13.pdf,5/27/2013,Presidency,PUB-OV
ST-9398/1/13-REV1,9398/13,9398/1/13,2013,st09398-re01.en13.pdf,5/27/2013,Presidency,PUB-OV
ST-9398/1/13-REV1,9398/13,9398/1/13,2013,ST_9398_2013_REV_1_EN.pdf,5/27/2013,Presidency,PUB
ST-9398/1/13-REV1-ADD1,9398/13,9398/1/13-A1,2013,2012-0011-DP-Regulation-ChapI-IV-Text-st09398-re01ad01.en13-1.pdf,5/27/2013,Presidency,PUB-OV
ST-9398/1/13-REV1-ADD1,9398/13,9398/1/13-A1,2013,st09398-re01ad01.en13.pdf,5/27/2013,Presidency,PUB-OV
ST-9398/1/13-REV1-ADD1-COR01,9398/13,9398/1/13-A1-C1,2013,2012-0011-DP-Regulation-ChapterI-IV-st09398-re01ad01co01.en13.pdf,5/28/2013,Presidency,PUB-OV
ST-10227/13,10227/13,10227/13,2013,2012-0011-DP-RegulationKeyIssuesChapI-IV-st10227.en13.pdf,5/31/2013,Presidency,PUB-OV
ST-10227/13,10227/13,10227/13,2013,ST_10227_2013_INIT_EN.pdf,5/31/2013,Presidency,PUB
ST-10227/13-ADD1,10227/13,10227/13-A1,2013,ST_10227_2013_ADD_1_EN.pdf,5/31/2013,Presidency,PUB
ST-10227/13-ADD1,10227/13,10227/13-A1,2013,2012-0011-DP-RegulationKeyIssuesChapI-IV-TEXT-st10227-ad01.en13.pdf,5/31/2013,Presidency,PUB-OV
ST-9967/13,9967/13,9967/13,2013,2012-0011-DP-Regulation-st09967.en13.pdf,6/3/2013,Presidency,
ST-7105/4/13-REV4,7105/13,7105/4/13,2013,ST_7105_2013_REV_4_EN.pdf,6/11/2013,Delegations,PUB
ST-7105/4/13-REV4,7105/13,7105/4/13,2013,2012-0011-DP-Regulation-ChapVI-VII-st07105-re04.en13.pdf,6/19/2013,Delegations,PUB-OV
ST-11013/13,11013/13,11013/13,2013,2012-0011-DP-Regulation-Revised-st11013.en13.pdf,6/21/2013,Presidency,
ST-11654/13,11654/13,11654/13,2013,2012-0011-DP-Regulation-Press-st11654.en13.pdf,6/27/2013,"AUT, DNK, HUN + UK",PUB-OV
ST-11654/13,11654/13,11654/13,2013,ST_11654_2013_INIT_EN.pdf,6/27/2013,"AUT, DNK, HUN + UK",PUB
ST-11624/13,11624/13,11624/13,2013,2012-0010-DP-Directive-CouncilText-st11624.en13.pdf,6/28/2013,Presidency,
ST-12384/13,12384/13,12384/13,2013,2012-0011-DP-Regulation-HistoricalStatisticalScientific-st12384.en13.pdf,7/17/2013,Presidency,
ST-12879/13,12879/13,12879/13,2013,2012-0011-DP-Regulation-IT-st12879.en13.pdf,7/31/2013,ITA,
ST-12884/13,12884/13,12884/13,2013,2012-0011-DP-Regulation-DE-st12884.en13.pdf,7/31/2013,GER,
CM-3959/13,3959/13,3959/13,2013,2012-010-DP-Directive-cm03959.en13.pdf,8/1/2013,Secretariat,
CM-3959/13,3959/13,3959/13,2013,2012-010-DP-Directive-cm03959.en13.pdf,8/1/2013,Secretariat,
ST-12929/13,12929/13,12929/13,2013,2012-0011-DP-Regulation-ChapVI-VII-st12929.en13.pdf,8/7/2013,Presidency,
ST13263/1/13-REV1,3263/13,3263/13,2013,2012-0011-PostedWorkers-st13263-re01.en13.pdf,9/11/2013,Presidency,
ST-13440/13,13440/13,13440/13,2013,2012-0011-DP-Regulation-SafeHarborEvaluation-st13440.en13.pdf,9/11/2013,GER,PUB-OV
ST-13440/13,13440/13,13440/13,2013,ST_13440_2013_INIT_EN.pdf,9/11/2013,GER,PUB
ST-13643/13,13643/13,13643/13,2013,2012-0011-DP-Regulation-OneStopShop-st13643 en13.pdf,9/18/2013,Presidency,PUB-OV
ST-13643/13,13643/13,13643/13,2013,2012-0011-DP-Regulation-OneStopShop-st13643.en13.pdf,9/18/2013,Presidency,PUB-OV
ST-13643/13,13643/13,13643/13,2013,ST_13643_2013_INIT_EN.pdf,9/18/2013,Presidency,PUB
CM-3959/1/13-REV1,3959/13,3959/1/13,2013,2012-010-DP-Directive-cm03959-re01.en13.pdf,9/24/2013,Secretariat,
CM-3959/1/13-REV1,3959/13,3959/1/13,2013,2012-010-DP-Directive-cm03959-re01.en13.pdf,9/24/2013,Secretariat,
ST-14074/13,14074/13,14074/13,2013,2012-0011-DP-Regulation-OneStopShop-st14074.en13.pdf,9/27/2013,Presidency,PUB-OV
ST-14074/13,14074/13,14074/13,2013,ST_14074_2013_INIT_EN.pdf,9/27/2013,Presidency,PUB
ST-14074/1/13-REV1,14074/13,14074/1/13,2013,2012-0011-DPRegulation-OneStopShop-st14074-re01.en13.pdf,10/1/2013,Presidency,PUB-OV
ST-11624/1/13-REV1,11624/13,11624/1/13,2013,2012-0010-DP-Directive-ST11624-RE01-EN13.pdf,10/2/2013,Presidency,
ST-14260/13,14260/13,14260/13,2013,2012-0011-DP-Regulation-OneStopShopMechanism-st14260.en13.pdf,10/3/2013,Presidency,PUB-OV
ST-14260/13,14260/13,14260/13,2013,ST_14260_2013_INIT_EN.pdf,10/3/2013,Presidency,PUB
ST-14742/13,14742/13,14742/13,2013,2012-0011-DP-Regulation-ChapVI-VII-st14742.en13.pdf,10/14/2013,Presidency,
ST-15076/13,15076/13,15076/13,2013,2012-0011-DP-Regulation-ChapVIII-ST15076.EN13.pdf,10/23/2013,Presidency,
ST-7105/5/13-REV5,7105/13,7105/5/13,2013,2012-0011-DP-Regulation-ChapVI-VII-MSpositions-st07105-re05.en13.pdf,10/24/2013,Delegations,PUB-OV
ST-14901/2/13-REV2,14901/13,14901/2/13,2013,2012-0010-DP-Regulation-ChapI-IV-st14901-re02.en13.pdf,10/30/2013,Presidency,
ST-15601/13,15601/13,15601/13,2013,2012-0011-DP-Regulation-OneStopMechanism-DeMinimis-st15601.en13.pdf,10/31/2013,FRA,
ST-15604/13,15604/13,15604/13,2013,2012-0011-DP-Regulation-ChapVI-VII-st15604.en13.pdf,10/31/2013,Presidency,PUB-OV
ST-15604/13,15604/13,15604/13,2013,ST_15604_2013_INIT_EN.pdf,10/31/2013,Presidency,PUB
ST-14863/1/13-REV1,14863/13,14863/1/13,2013,2012-0011-DP-Regulation-Chap-VIII-st14863-re01.en13.pdf,11/7/2013,Presidency,PUB-OV
ST-14863/1/13-REV1,14863/13,14863/1/13,2013,ST_14863_2013_REV_1_EN.pdf,11/7/2013,Presidency,PUB
ST-14901/13-ADD3,14901/13,14901/13,2013,2012-0010-DP-RegulationChapI-IV-POst14901-ad03.en13.pdf,11/12/2013,POR,
ST-15802/13,15802/13,15802/13,2013,2012-0011-DP-Regulation-OneStopShopMechanism-st15802.en13.pdf,11/18/2013,Presidency,
ST-16626/13,16626/13,16626/13,2013,2012-0011-DP-Regulation-OneStopShop-st16626.en13.pdf,11/22/2013,Presidency,PUB-OV
ST-14210/4/13-REV4,14210/13,14210/4/13,2013,ST_14210_2013_REV_4_EN.pdf,11/26/2013,Secretariat,PUB
ST-14210/4/13-REV4,14210/13,14210/4/13,2013,2012-0011-DP-Regulation-Artt-83abc-ST14210-RE04.EN13[1].pdf,11/26/2013,Secretariat,PUB-OV
ST-16626/1/13-REV1,16626/13,16626/13,2013,2012-0011-DP-Regulation-SomeIssues-st16626-re01.en13.pdf,11/26/2013,Presidency,PUB-OV
ST-7105/6/13-REV6,7105/13,7105/6/13,2013,2012-0011-DP-Regulation-ChapVI-VII-st07105-re06.en13.pdf,11/28/2013,Delegations,PUB-OV
ST-16626/3/13-REV3,16626/13,16626/3/13,2013,ST_16626_2013_REV_3_EN.pdf,12/2/2013,Presidency,PUB
ST-16626/3/13-REV3,16626/13,16626/3/13,2013,2012-0011-DP-Regulation-OneStopShop-st16626-re03.en13.pdf,12/2/2013,Presidency,PUB-OV
ST-17025/13,17025/13,17025/13,2013,2012-0011-DP-RegulationOneStopShop-st17025.en13.pdf,12/4/2013,Presidency,PUB-OV
ST-17025/13,17025/13,17025/13,2013,ST_17025_2013_INIT_EN.pdf,12/4/2013,Presidency,PUB
ST-6723/5/13-REV5,6723/13,6723/5/13,2013,2012-0011-DP-Regulation-ChapV-MS-st06723-re05.en13.pdf,12/12/2013,Secretariat,
ST-17831/13,17831/13,17831/13,2013,2012-0011-DP-Regulation-RevisedVersion-244pages-st17831.en13.pdf,12/16/2013,Presidency,
ST-17971/13,17971/13,17971/13,2013,2012-0011-DP-Regulation-Profiling-ChapI-IV-st17971.en13.pdf,12/19/2013,Presidency,
ST-18031/13,18031/13,18031/13,2013,2012-0011-DP-Regulation-SJ-OneStopShop-18031-13.pdf,12/19/2013,Legal Service,PUB-OV
ST-18031/13,18031/13,18031/13,2013,ST_18031_2013_INIT_EN.pdf,12/19/2013,Legal Service,PUB
ST-6278/13-ADD1,6278/13,6278/13-A1,2013,2012-0011-DP-Regulation-SLK-st06278-ad01.en13-1.pdf,2/25/2014,SVK,
ST-6723/6/13-REV6,6723/13,6723/6/13,2013,2012-0011-DP-Regulation-ChapVcomments-st06723-re06.en13.pdf,4/23/2014,Secretariat,
ST-14074/1/13-REV1,14074/13,14074/1/13,2013,ST_14074_2013_REV_1_EN.pdf,not added,not added,PUB
ST-14210/1/13-REV1,14210/13,14210/1/13,2013,ST_14210_2013_REV_1_EN.pdf,not added,not added,PUB
ST-14210/13,14210/13,14210/13,2013,ST_14210_2013_INIT_EN.pdf,not added,not added,PUB
ST-14210/2/13-REV2,14210/13,14210/2/13,2013,ST_14210_2013_REV_2_EN.pdf,not added,not added,PUB
ST-14210/3/13-REV3,14210/13,14210/3/13,2013,ST_14210_2013_REV_3_EN.pdf,not added,not added,PUB
ST-14863/13,14863/13,14863/13,2013,ST_14863_2013_INIT_EN.pdf,not added,not added,PUB
ST-16626/2/13-REV2,16626/13,16626/2/13,2013,ST_16626_2013_REV_2_EN.pdf,not added,not added,PUB
ST-6607/1/13-REV1,6607/13,6607/1/13,2013,ST_6607_2013_REV_1_EN.pdf,not added,not added,PUB
ST-6607/1/13-REV5,6723/13,6723/5/13,2013,ST_6723_2013_REV_5_EN.pdf,not added,not added,PUB
ST-6607/1/13-REV6,6723/13,6723/6/13,2013,ST_6723_2013_REV_6_EN.pdf,not added,not added,PUB
ST-6607/13,6607/13,6607/13,2013,ST_6607_2013_INIT_EN.pdf,not added,not added,PUB
ST-7105/3/13-REV3,7105/13,7105/3/13,2013,2012-0011-DPRegulation-ChaptersVI-VII-MS-Comments-st07105-re03.en13.pdf,not added,not added,PUB-OV
ST-7105/5/13-REV5,7105/13,7105/5/13,2013,ST_7105_2013_REV_5_EN.pdf,not added,not added,PUB
ST-7105/6/13-REV6,7105/13,7105/6/13,2013,ST_7105_2013_REV_6_EN.pdf,not added,not added,PUB
ST-7612/13,7612/13,7612/13,2013,ST_7612_2013_INIT_EN.pdf,not added,not added,PUB
ST-9398/13,9398/13,9398/13,2013,ST_9398_2013_INIT_EN.pdf,not added,not added,PUB
ST-9398/13-COR01,9398/13,9398/13-C1,2013,ST_9398_2013_COR_1_EN.pdf,not added,not added,PUB
ST-14147/2/14-REV2,14147/14,14147/2/14,2014,2012-0011-DP-Regulation-Comment-artt11-27-ST14147-RE02.EN12.pdf,11/5/2012,Secretariat,
ST-12384/14,12384/14,12384/14,2014,2012-0011-DP-Regulation-historicalStatistical-scientific-st12384.en13.pdf,7/17/2013,Presidency,
ST-5345/14,5345/14,5345/14,2014,2012-0011-DP-Regulation-Chap-I-IV-ControllersAndProcessors-st05345.en14.pdf,1/15/2014,Presidency,
ST-5345/14,5345/14,5345/14,2014,st05345.en14.pdf,1/15/2014,Presidency,
ST-5331/14,5331/14,5331/14,2014,2012-0011-DP-Regulation-st05331.en14.pdf,1/16/2014,Presidency,
ST-5332/14,5332/14,5332/14,2014,2012-0011-DP-Regulation-Pseudonomisation-st05332.en14.pdf,1/16/2014,Presidency,
ST-5344/14,5344/14,5344/14,2014,2012-0011-DP-Regulation-Profiling-st05344.en14.pdf,1/16/2014,Presidency,
ST-5406/1/14-REV1,5406/14,5406/1/14,2014,2012-0011-DP-Regulation-ChapIX-X-st05406-re01.en14.pdf,1/17/2014,Secretariat,PUB-OV
ST-5406/1/14-REV1,5406/14,5406/1/14,2014,ST_5406_2014_REV_1_EN.pdf,1/17/2014,Secretariat,PUB
ST-5332/1/14-REV1,5332/14,5332/14,2014,2012-0011-DP-Regulation-Pseudonomisation-st05332-re01.en14.pdf,1/20/2014,Presidency,
ST-5879/14,5879/14,5879/14,2014,2012-0011-DP-Regulation-DataPortability-st05879.en14.pdf,1/31/2014,Presidency,
ST-5880/1/14-REV1,5880/14,5880/14,2014,2012-0011-DP-Regulation-PriorChecks-st05880-re01.en14.pdf,1/31/2014,Presidency,PUB-OV
ST-5880/14,5880/14,5880/14,2014,2012-0011-DP-Regulation-DP-impactAndPriorChecks-st05880.en14.pdf,1/31/2014,Presidency,PUB-OV
ST-5880/14,5880/14,5880/14,2014,ST_5880_2014_INIT_EN.pdf,1/31/2014,Presidency,PUB
ST-5881/14,5881/14,5881/14,2014,2012-0011-DP-Regulation-Art26-st05881.en14.pdf,1/31/2014,Presidency,
ST-5882/14,5882/14,5882/14,2014,2012-0011-DP-Regulation-OneStopShop-st05882.en14.pdf,1/31/2014,Presidency,PUB-OV
ST-5882/14,5882/14,5882/14,2014,ST_5882_2014_INIT_EN.pdf,1/31/2014,Presidency,PUB
ST-5406/2/14-REV2,5406/14,5406/2/14,2014,ST_5406_2014_REV_2_EN.pdf,2/10/2014,Secretariat,PUB
ST-5344/1/14-REV1,5344/14,5406/1/14,2014,2012-0011-DP-Regulation-Profiling-st05344-re01.en14.pdf,2/13/2014,Presidency,
ST-5882/1/14-REV1,5882/14,5406/1/14,2014,2012-0011-DP-Regulation-OneStopShopMechanism-st05882-re01.en14.pdf,2/13/2014,Presidency,PUB-OV
ST-5882/2/14-REV2,5882/14,5406/2/14,2014,2012-0011-DP-RegulationOneStopShop-st05882-re02.en14.pdf,2/14/2014,Presidency,PUB-OV
ST-6637/14,6637/14,6637/14,2014,2012-0011-DP-Regulation-OneStopShop-st06637.en14.pdf,2/18/2014,GER,
ST-6637/14,6637/14,6637/14,2014,2012-0011-DP-Regulation-st06637.en14-1.pdf,2/18/2014,GER,
ST-6798/14,6798/14,6798/14,2014,2012-0011-DP-Regulation-EDPSprogressPackage-st06798.en14.pdf,2/20/2014,EDPS,PUB-OV
ST-6798/14,6798/14,6798/14,2014,ST_6798_2014_INIT_EN.pdf,2/20/2014,EDPS,PUB
ST-6762/14,6762/14,6762/14,2014,2012-0011-DP-Regualtion-CRP-OrientationDebate-st06762.en14.pdf,2/24/2014,Presidency,PUB-OV
ST-6762/14,6762/14,6762/14,2014,2012-0011-DP-Regulation-Orientation-st06762.en14.pdf,2/24/2014,Presidency,PUB-OV
ST-6762/14,6762/14,6762/14,2014,ST_6762_2014_INIT_EN.pdf,2/24/2014,Presidency,PUB
ST-6079/14,6079/14,6079/14,2014,2012-0011-DP-Regulation-Profiling-st06079.en14.pdf,2/25/2014,Presidency,
ST-6762/1/14-REV1,6762/14,6762/1/14,2014,2012-0011-DP-Regulation-StateOfPlay-st06762-re01.en14.pdf,2/28/2014,Presidency,PUB-OV
ST-6762/1/14-REV1,6762/14,6762/1/14,2014,ST_6762_2014_REV_1_EN.pdf,2/28/2014,Presidency,PUB
ST-6762/1/14-REV1,6762/14,6762/1/14,2014,Diskussionspapier_DS-GrundVO_JI-Rat_3._4._März_2014_-_ST06762-RE01.EN14.pdf,2/28/2014,Presidency,
ST-5882/3/14-REV3,5882/14,5882/3/14,2014,2012-0011-DP-RegulationOneStopShopMechanism-st05882-re03.en14.pdf,3/6/2014,Presidency,PUB-OV
ST-6079/1/14-REV1,6079/14,6079/1/14,2014,2012-0011-DP-Regulation-Profiling-st06079-re01.en14.pdf,3/11/2014,Presidency,
ST-7464/14,7464/14,7464/14,2014,2012-0011-DP-RegulationOneStopShopMechanism-st07464.en14.pdf,3/11/2014,Presidency,PUB-OV
ST-7464/14,7464/14,7464/14,2014,ST_7464_2014_INIT_EN.pdf,3/11/2014,Presidency,PUB
CM-2096/1/14-REV1,2096/14,2096/1/14,2014,2012-0011-DP-RegulationRequestContributions-cm02096-re01.en14.pdf,3/19/2014,Secretariat,
ST-7427/14,7427/14,7427/14,2014,ST_7427_2014_INIT_EN.pdf,3/20/2014,Secretariat,PUB
ST-8087/14,8087/14,8087/14,2014,2012-0011-DP-Regulation-ChapV-st08087.en14.pdf,3/25/2014,Presidency,PUB-OV
ST-8172/14,8172/14,8172/14,2014,2012-0011-DP-RegulationDataPortability-st08172.en14.pdf,3/25/2014,Presidency,
ST-7427/1/14-REV1,7427/14,7427/1/14,2014,2012-0011-DP-Regulation-OP-EP-100314-st07427-re01.en14.pdf,3/27/2014,Secretariat,PUB-OV
ST-7427/1/14-REV1,7427/14,7427/1/14,2014,ST_7427_2014_REV_1_EN.pdf,3/27/2014,Secretariat,PUB
ST-7464/1/14-REV1,7464/14,7464/1/14,2014,2012-0011-DP-Regulation-OneStopShop-st07464-re01.en14.pdf,3/27/2014,Presidency,PUB-OV
ST-7464/1/14-REV1,7464/14,7464/1/14,2014,ST_7464_2014_REV_1_EN.pdf,3/27/2014,Presidency,PUB
ST-8275/14,8275/14,8275/14,2014,ST_8275_2014_INIT_EN.pdf,3/27/2014,AUT,PUB
ST-5881/1/14-REV1,5881/14,5881/1/14,2014,2012-0011-DP-Regulation-Art26-st05881-re01.en14.pdf,4/3/2014,Presidency,
ST-7464/2/14-REV2,7464/14,7464/2/14,2014,ST_7464_2014_REV_2_EN.pdf,4/3/2014,Presidency,PUB
ST-7464/2/14-REV2,7464/14,7464/2/14,2014,2012-0011-DP-Regulation-OneStopShop-st07464-re02.en14.pdf,4/3/2014,Presidency,PUB-OV
ST-8087/1/14-REV1,8087/14,8087/14,2014,ST_8087_2014_REV_1_EN.pdf,4/28/2014,Presidency,PUB
ST-8087/2/14-REV2,8087/14,8087/2/14,2014,ST_8087_2014_REV_2_EN.pdf,5/12/2014,Presidency,PUB
ST-8087/2/14-REV2,8087/14,8087/2/14,2014,2012-0011-DP-Regulation-ChapV-st08087-re02.en14.pdf,5/12/2014,Presidency,PUB-OV
ST-9703/14,9703/14,9703/14,2014,2012-0011-DP-RegulationChapV-Art44-NL-st09703.en14.pdf,5/12/2014,NED,PUB-OV
ST-9703/14,9703/14,9703/14,2014,ST_9703_2014_INIT_EN.pdf,5/12/2014,NED,PUB
ST-9865/14,9865/14,9865/14,2014,2012-0011-DP-RegulationChapterV-st09865.en14.pdf,5/19/2014,Presidency,PUB-OV
ST-9865/14,9865/14,9865/14,2014,ST_9865_2014_INIT_EN.pdf,5/19/2014,Presidency,PUB
ST-9865/1/14-REV1,9865/14,9865/1/14,2014,2012-0011-DP-Regulation-ChapV-st09865-re01.en14.pdf,5/22/2014,Presidency,PUB-OV
ST-10198/14,10198/14,10198/14,2014,ST_10198_2014_INIT_EN.pdf,5/23/2014,AT,PUB
ST-9462/14,9462/14,9462/14,2014,2012-0011-DP-Regulation-ImpactAssessPriorAuthoriz-st09462.en14.pdf,5/23/2014,Secretariat,PUB-OV
ST-9462/14,9462/14,9462/14,2014,ST_9462_2014_INIT_EN.pdf,5/23/2014,Secretariat,PUB
ST-9831/14,9831/14,9831/14,2014,2012-0011-DP-Regulation-Art26-Processor-st09831.en14.pdf,5/23/2014,Secretariat,PUB-OV
ST-9831/14,9831/14,9831/14,2014,ST_9831_2014_INIT_EN.pdf,5/23/2014,Secretariat,PUB
ST-10139/14,10139/14,10139/14,2014,2012-0011-DP-Regulation-OneStopShop-st10139.en14.pdf,5/26/2014,Presidency,PUB-OV
ST-10139/14,10139/14,10139/14,2014,ST_10139_2014_INIT_EN.pdf,5/26/2014,Presidency,PUB
ST-10349/14,10349/14,10349/14,2014,2012-0011-DP-Regulation-ChapV-PartialApproach-st10349.en14.pdf,5/26/2014,Presidency,PUB-OV
ST-9865/2/14-REV2,9865/14,9865/2/14,2014,ST_9865_2014_REV_2_EN.pdf,5/26/2014,Presidency,PUB
ST-9865/2/14-REV2,9865/14,9865/2/14,2014,2012-0011-DP-Regulation-PartialGeneralApproach-st09865-re02.en14.pdf,5/26/2014,Presidency,PUB-OV
ST-10349/14,10349/14,10349/14,2014,20140528_10349_14_Pres_Chap_V_part_approach.pdf,5/28/2014,Presidency,PUB-OV
ST-10349/14,10349/14,10349/14,2014,ST_10349_2014_INIT_EN.pdf,5/28/2014,Presidency,PUB
ST-10614/14,10614/14,10614/14,2014,2012-0011-DP-Regulation-DataPortabilityArt18-st10614.en14.pdf,6/6/2014,Presidency,
ST-10615/14,10615/14,10615/14,2014,2012-0011-DP-RegulationProcessorArt26-st10615.en14.pdf,6/6/2014,Presidency,
ST-10616/14,10616/14,10616/14,2014,2012-0011-DP-Regulation-PriorImpact-st10616.en14.pdf,6/6/2014,Presidency,
ST-10617/14,10617/14,10617/14,2014,ST_10617_2014_INIT_EN.pdf,6/10/2014,Presidency,PUB
ST-10349/14,10349/14,10349/14,2014,ST_10349_2014_COR_1_EN.pdf,6/11/2014,Secretariat,PUB
ST-10349/14-COR1,10349/14,10349/14-C1,2014,2012-0011-DP-Regulation-PartialApproach-st10349-co01.en14.pdf,6/11/2014,Secretariat,PUB-OV
ST-11028/14,11028/14,11028/14,2014,2012-0011-DP-Regulation-RevisedText-st11028.en14.pdf,6/30/2014,Presidency,PUB-OV
ST-11028/14,11028/14,11028/14,2014,20140630_11028 14_PRES_End of Greek Pres.pdf,6/30/2014,Presidency,PUB-OV
ST-11028/14,11028/14,11028/14,2014,ST_11028_2014_INIT_EN.pdf,7/3/2014,Presidency,PUB
ST-11289/14,11289/14,11289/14,2014,20140703_11289_14_PRES_Right_to_be_forgotten.pdf,7/3/2014,Presidency,PUB-OV
ST-11481/14,11481/14,11481/14,2014,20140703_11481_14_PRES_Risk_base_approach.pdf,7/3/2014,Presidency,PUB-OV
ST-11481/14,11481/14,11481/14,2014,ST_11481_2014_INIT_EN.pdf,7/3/2014,Presidency,PUB
ST-11640/14,11640/14,11640/14,2014,2012-0011-DP-Regulation-DK-Flexibility-st11640.en14.pdf,7/7/2014,DNK,
ST-11640/14,11640/14,11640/14,2014,20140707_11640_14_DK_Flexibility_for_national_legislation_in_the_draft_Regulation.pdf,7/7/2014,DNK,
ST-11028/14-COR1,11028/14,11028/14-C1,2014,2012-0011-DP-Regulation-st11028-co01.en14.pdf,7/8/2014,Secretariat,PUB-OV
ST-11715/14,11715/14,11715/14,2014,2012-0011-DP-Regulation-CertificationControllers-FR-st11715.en14.pdf,7/9/2014,FRA,PUB-OV
ST-11715/14,11715/14,11715/14,2014,20140709_11715_14_FR_Mechanism_for_certification_of_controllers_and_processors_not_established_in_the_EU.pdf,7/9/2014,FRA,PUB-OV
ST-11715/14,11715/14,11715/14,2014,ST_11715_2014_INIT_EN.pdf,7/9/2014,FRA,PUB
ST-12267/14,12267/14,12267/14,2014,20140731_12267_14_COUN_SEC_Risk_based_approach.pdf,7/31/2014,Secretariat,PUB-OV
ST-12267/14,12267/14,12267/14,2014,ST_12267_2014_INIT_EN.pdf,7/31/2014,Secretariat,PUB
ST-12274/14,12274/14,12274/14,2014,20140731_12274_14_COUN_SEC_Right_to_be_forgotten.pdf,7/31/2014,Secretariat,PUB-OV
ST-12274/14,12274/14,12274/14,2014,ST_12274_2014_INIT_EN.pdf,7/31/2014,Secretariat,PUB
ST-12312/14,12312/14,12312/14,2014,2012-0011-DP-Regulation-ChapIV-st12312.en14.pdf,8/1/2014,Presidency,PUB-OV
ST-12312/14,12312/14,12312/14,2014,20140801_12312_14_PRES_Chap_IV.pdf,8/1/2014,Presidency,PUB-OV
ST-12312/14,12312/14,12312/14,2014,ST_12312_2014_INIT_EN.pdf,8/1/2014,Presidency,PUB
ST-12267/1/14-REV1,12267/14,12267/1/14,2014,2012-0011-DP-REgulation-RiskBasedApproach-st12267-re01.en14.pdf,8/6/2014,Secretariat,PUB-OV
ST-12267/1/14-REV1,12267/14,12267/1/14,2014,ST_12267_2014_REV_1_EN.pdf,8/6/2014,Secretariat,PUB
ST-12274/1/14-REV1,12274/14,12274/1/14,2014,2012-0011-DP-Regulation-RightToBeforgotten-st12274-re01.en14.pdf,8/6/2014,Secretariat,PUB-OV
ST-12274/1/14-REV1,12274/14,12274/1/14,2014,20140806_12274_14_REV1_COUN_SEC_Right_to_be_forgotten.pdf,8/6/2014,Secretariat,PUB-OV
ST-12267/2/14-REV2,12267/14,12267/2/14,2014,ST_12267_2014_REV_2_EN.pdf,9/2/2014,Secretariat,PUB
ST-12267/2/14-REV2,12267/14,12267/2/14,2014,20140902_12267_14_REV2_COUN_SEC_Risk_based_approach.pdf,9/2/2014,Secretariat,PUB-OV
ST-12267/2/14-REV2,12267/14,12267/2/14,2014,2012-0011-DP-RegulationRiskBasedApproach-st12267-re02.en14.pdf,9/2/2014,Secretariat,PUB-OV
ST-11289/14-REV1,11289/14,11289/1/14,2014,20140903_11289_14_REV1_PRES_Right_to_be_forgotten.pdf,9/3/2014,Presidency,PUB-OV
ST-11289/14-REV1,11289/14,11289/1/14,2014,ST_11289_2014_REV_1_EN.pdf,9/3/2014,Presidency,PUB
ST-12274/14-REV2,12274/14,12274/2/14,2014,20140903_12274_14_REV2_COUN_SEC_Right_to_be_forgotten.pdf,9/3/2014,Secretariat,PUB-OV
ST-13187/14,13187/14,13187/14,2014,"20140912_13187_14_FR_Certification_mechanism,_including_crossboarder_transfers_outside_the_EU.pdf",9/12/2014,FRA,
ST-12312/1/14-REV1,12312/14,12312/1/14,2014,ST_12312_2014_REV_1_EN.pdf,9/17/2014,Presidency,PUB
ST-12312/1/14-REV1,12312/14,12312/1/14,2014,20140917_12312_14_REV1_PRES_Chap_IV.pdf,9/17/2014,Presidency,PUB-OV
ST-13260/14,13260/14,13260/14,2014,st13260.en14.pdf,9/17/2014,Presidency,
ST-12312/4/14-REV4,12312/14,12312/4/14,2014,ST_12312_2014_REV_4_EN.pdf,9/20/2014,Presidency,PUB
ST-12312/2/14-REV2,12312/14,12312/2/14,2014,ST_12312_2014_REV_2_EN.pdf,9/22/2014,Presidency,PUB
ST-13355/14,13355/14,13355/14,2014,20140922_13355_14_PRES_Public_Sector_and_Chap_IX.pdf,9/22/2014,Presidency,PUB-OV
ST-13355/14,13355/14,13355/14,2014,DP-Regulation_flexibility public sector_Presidency_2014-09.pdf,9/22/2014,Presidency,PUB-OV
ST-13355/14,13355/14,13355/14,2014,ST_13355_2014_INIT_EN.pdf,9/22/2014,Presidency,PUB
ST-12312/3/14-REV3,12312/14,12312/3/14,2014,20140926_12312_14_Rev3_PRES_Chap_IV.pdf,9/26/2014,Presidency,PUB-OV
ST-12312/3/14-REV3,12312/14,12312/3/14,2014,ST_12312_2014_REV_3_EN.pdf,9/26/2014,Presidency,PUB
ST-13619/14,13619/14,13619/14,2014,20140929_13619_14_PRES_Right_to_be_forgotten_orientation_debate.pdf,9/29/2014,Presidency,PUB-OV
ST-13619/14,13619/14,13619/14,2014,ST_13619_2014_INIT_EN.pdf,9/29/2014,Presidency,PUB
ST-13772/14,13772/14,13772/14,2014,20141003_13772_14_PRES_Chap_IV.pdf,10/3/2014,Presidency,PUB-OV
ST-13772/14,13772/14,13772/14,2014,ST_13772_2014_INIT_EN.pdf,10/3/2014,Presidency,PUB
ST-14098/14,14098/14,14098/14,2014,ST_14098_2014_INIT_EN.pdf,10/13/2014,Secretariat,PUB
ST-14270/14,14270/14,14270/14,2014,ST_14270_2014_INIT_EN.pdf,10/16/2014,Presidency,PUB
ST-14356/14,14356/14,14356/14,2014,st14356.en14.pdf,10/17/2014,Secretariat,
ST-14098/1/14-REV1,14098/14,14098/1/14,2014,st14098-re01.en14.pdf,10/20/2014,Secretariat,PUB-OV
ST-14098/1/14-REV1,14098/14,14098/1/14,2014,ST_14098_2014_REV_1_EN.pdf,10/20/2014,Secretariat,PUB
ST-14270/1/14-REV1,14270/14,14270/1/14,2014,20141024_14270_14_REV1_PRES_Chap_II_Art_21_and_Cap_IX.pdf,10/24/2014,Presidency,PUB-OV
ST-14270/1/14-REV1,14270/14,14270/1/14,2014,20141024_14270_14_REV1_PRES_Chap_II_Art_21_and_Chap_IX.pdf,10/24/2014,Presidency,PUB-OV
ST-14705/14,14705/14,14705/14,2014,20141024_14705_14_GER_Pseudonymisation.pdf,10/24/2014,GER,
ST-14732/14,14732/14,14732/14,2014,20141024_14732_14_HUN_Minimum_harmonisation.pdf,10/24/2014,HUN,
ST-14707/14,14707/14,14707/14,2014,20141027_14707_14_GER_Consent.pdf,10/27/2014,GER,
ST-14765/14,14765/14,14765/14,2014,20141027_14765_14_FIN_Recital_38.pdf,10/27/2014,FIN,
ST-14784/14,14784/14,14784/14,2014,20141028_14784_14_AUT_Chap_II_Art_21_and_Cap_IX.pdf,10/28/2014,AUT,
ST-14786/14,14786/14,14786/14,2014,"20141028_14786_14_EST_Artt._1_21_Chap_II,_IX.pdf",10/28/2014,EST,
ST-14797/14,14797/14,14797/14,2014,20141028_14797_DK_Proposal_for_amendments.pdf,10/28/2014,DNK,
ST-14788/14,14788/14,14788/14,2014,20141031_14788_14_PRES_One_Stop_Shop.pdf,10/31/2014,Presidency,
ST-14707/1/14-REV1,14707/14,14707/1/14,2014,st14707-re01.en14.pdf,11/3/2014,GER,
ST-15106/14,15106/14,15106/14,2014,2012-0011-DP-Regulation-SocialProtection-DE-st15106.en14.pdf,11/5/2014,GER,
ST-15108/14,15108/14,15108/14,2014,2012-0011-DP-Regulation-EmploymentContext-DE-st15108.en14.pdf,11/5/2014,GER,PUB
ST-14788/1/14-REV1,14788/14,14788/1/14,2014,2012-0011-DP-Regulation-OneStopShop-st14788-re01.en14.pdf,11/13/2014,Presidency,
ST-14788/1/14-REV1,14788/14,14788/1/14,2014,20141113_14788_14_REV1_PRES_One_Stop_Shop.pdf,11/13/2014,Presidency,
ST-15389/14,15389/14,15389/14,2014,2012-0011-DP-Regulation-PartialGeneralApproach-st15389.en14.pdf,11/13/2014,Presidency,PUB-OV
ST-15389/14,15389/14,15389/14,2014,20141113_15389_14_PRES_Public_Sector.pdf,11/13/2014,Presidency,PUB-OV
ST-15389/14,15389/14,15389/14,2014,ST_15389_2014_INIT_EN.pdf,11/13/2014,Presidency,PUB
ST-15544/14,15544/14,15544/14,2014,2012-0011-DP-Regulation-ChapIX-st15544.en14.pdf,11/14/2014,Presidency,
ST-15544/14,15544/14,15544/14,2014,2012-0011-DP-Regulation-ChapterIX-Revised-st15544.en14.pdf,11/14/2014,Presidency,
ST-15544/14,15544/14,15544/14,2014,20141114_15544_14_PRES_Chap_IX.pdf,11/14/2014,Presidency,
ST-15712/14,15712/14,15712/14,2014,2012-0011-DP-Regulation-SJ-PublicSector-st15712.en14.pdf,11/18/2014,Legal Service,PUB-OV
ST-15712/14,15712/14,15712/14,2014,20141118_15712_14_LegalServ_Mini_Harmo_Public_Sec.pdf,11/18/2014,Legal Service,PUB-OV
ST-15712/14,15712/14,15712/14,2014,20141118_15712_14_LegalServ_Minimum_Harmonisation_Public_Sec.pdf,11/18/2014,Legal Service,PUB-OV
ST-15659/1/14-REV1,15659/14,15659/1/14,2014,"20141119_15659_14_REV1_PRES_Directiv_Chap_I,_II,_and_V.pdf",11/19/2014,Presidency,
ST-15659/1/14-REV1,15659/14,15659/1/14,2014,"20141119_15659_14_REV1_PRES_DIRECTIV_Chap_I,_II,_and_V.pdf",11/19/2014,Presidency,
ST-15768/14,15768/14,15768/14,2014,2012-0011-DP-Regulation-AU-st15768.en14.pdf,11/19/2014,AUT,
ST-15768/14,15768/14,15768/14,2014,"20141119_15768_14_AUT_Chap_I,_II,_IX.pdf",11/19/2014,AUT,
CM-5142/1/14-REV1,5142/14,5142/1/14,2014,CM_5142_2014_REV_1_EN.pdf,11/21/2014,Secretariat,
ST-15655/14,15655/14,15655/14,2014,2012-0011-DP-Regulation-PublicSector-ChapIX-st15655.en14.pdf,11/21/2014,Presidency,PUB-OV
ST-15655/14,15655/14,15655/14,2014,ST_15655_2014_INIT_EN.pdf,11/21/2014,Presidency,PUB
ST-15712/14,15712/14,15712/14,2014,ST_15712_2014_INIT_EN.pdf,11/24/2014,Legal Service,PUB
ST-16012/14,16012/14,16012/14,2014,ST_16012_2014_INIT_EN.pdf,11/24/2014,???,PUB
ST-15655/1/14-REV1,15655/14,15655/1/14,2014,2012-0011-DP-Regulation-PublicSectorChapIX-251114-st15655-re01.en14.pdf,11/25/2014,Presidency,PUB-OV
ST-15655/1/14-REV1,15655/14,15655/1/14,2014,2012-0011-DP-Regulation-PublicSectorChapIX-st15655-re01.en14.pdf,11/25/2014,Presidency,PUB-OV
ST-15655/1/14-REV1,15655/14,15655/1/14,2014,ST_15655_2014_REV_1_EN.pdf,11/25/2014,Presidency,PUB
ST-15656/14,15656/14,15656/14,2014,2012-0011-DP-Regulation-OneStopShop-OrientationDebate-251114-st15656.en14.pdf,11/25/2014,Presidency,PUB-OV
ST-15656/14,15656/14,15656/14,2014,ST_15656_2014_INIT_EN(1).pdf,11/25/2014,Presidency,PUB
ST-15656/14,15656/14,15656/14,2014,ST_15656_2014_INIT_EN.pdf,11/25/2014,Presidency,PUB
ST-15656/15,15656/14,15656/14,2014,2012-0011-DP-Regulation-OneStopShop-OrientationDebate-st15656.en14.pdf,11/25/2014,Presidency,
ST-15730/14,15730/14,15730/14,2014,20141125_15730_14_PRES_DIRECTIV_State_of_Play.pdf,11/25/2014,Presidency,
ST-16090/13,16090/14,16090/14,2014,ST16090_EN14.pdf,11/25/2014,Presidency,
ST-16090/14,16090/14,16090/14,2014,2012-0011-DP-Regulation-OneStopShop-251114-st16090.en14.pdf,11/25/2014,Presidency,
ST-16090/14,16090/14,16090/14,2014,2012-0011-DP-Regulation-OneStopShop-st16090.en14.pdf,11/25/2014,Presidency,
DS-1571/14,1571/14,1571/14,2014,ds01571.en14_.pdf,11/27/2014,Presidency,
DS-1573/14,1573/14,1573/14,2014,ds01573.en14_-_OSS.pdf,11/27/2014,Presidency,
ST-15656/1/14-REV1,15656/14,15656/1/14,2014,20141128_15656_14_REV1_PRES_One_Stop_Orient_Deb.pdf,11/28/2014,Presidency,PUB-OV
ST-15656/1/14-REV1,15656/14,15656/1/14,2014,ST_15656_2014_REV_1_EN.pdf,11/28/2014,Presidency,PUB
ST-15607/14,15607/14,15607/14,2014,ST15607.EN14.pdf,12/1/2014,GER,
ST-16140/14,16140/14,16140/14,2014,2012-0011-DP-Regulation-OrientationDebate-st16140.en14.pdf,12/1/2014,Presidency,PUB-OV
ST-16140/14,16140/14,16140/14,2014,20141201_16140_14_PRES_Pub_Sec.pdf,12/1/2014,Presidency,PUB-OV
ST-16140/14,16140/14,16140/14,2014,ST_16140_2014_INIT_EN.pdf,12/1/2014,Presidency,PUB
ST-16140/14-COR1,16140/14,16140/14-C1,2014,ST_16140_2014_COR_1_EN.pdf,12/1/2014,Presidency,PUB
ST-16140/14-COR1,16140/14,16140/14-C1,2014,2012-0011-DP-Regulation-PublicSector-ChapterIX-st16140-co01.en14.pdf,12/1/2014,Presidency,PUB-OV
ST-17072/14,17072/14,17072/14,2014,20141213_17072_14_PRES_Chap_II_Revised_Text.pdf,12/13/2014,Presidency,
ST-16974/14,16974/14,16974/14,2014,2012-0011-DP-RegulationOneStopShop-st16974.en14.pdf,12/16/2014,Presidency,
ST-16974/14,16974/14,16974/14,2014,20141216_16974_14_PRES_One_Stop_Shop.pdf,12/16/2014,Presidency,
ST-16974/14,16974/14,16974/14,2014,st16974.en14,12/16/2014,Presidency,
ST-15395/14,15395/14,15395/14,2014,2012-0011-DP-RegulationRevisedText191214-st15395.en14.pdf,12/19/2014,Presidency,
ST-15395/14,15395/14,15395/14,2014,20141219_15395_14_PRES_Revised_Text.pdf,12/19/2014,Presidency,
ST-15391/14,15391/14,15391/14,2014,2012-0010-DP-Directive-Consolidated-145Pages-st15391.en14.pdf,12/22/2014,Secretariat,
ST-15391/14,15391/14,15391/14,2014,20141222_15391_14_GEN_SEC_Revised_Text_DIRECTIV.pdf,12/22/2014,Secretariat,
ST-17072/14,17072/14,17072/14,2014,2012-0011-DP-Regulation-ChapII-st17072.en14.pdf,12/23/2014,Incoming Presidency,
ST-17072/14,17072/14,17072/14,2014,20141223_17072 14_Pres_Chap II.pdf,12/23/2014,Presidency,
ST-17072/14,17072/14,17072/14,2014,ST17072.EN14.pdf,12/23/2014,Presidency,
ST-14705/1/14-REV1,14705/14,14705/1/14,2014,st14705-re01.en14.pdf,1/15/2015,GER,
ST-14705/1/14-REV1,14705/14,14705/1/14,2014,2012-0011-DP-Regulation-Pseudonymisation-DE-st14705-re01.en14.pdf,1/15/2015,GER,
ST-14705/1/14-REV1,14705/14,14705/1/14,2014,20150115_14705_14_REV1_GER_Pseudonymisation.pdf,1/15/2015,GER,
ST-5315/15,5315/15,5315/15,2015,20150115_5315_15_GER_FR_One_Stop_Shop.pdf,1/15/2015,GER + FRA,
ST-5315/15,5315/15,5315/15,2015,2012-0011-DP-Regulation-OneStopShop-DE-FR-st05315.en15.pdf,1/15/2015,GER + FRA,
ST-5315/15,5315/15,5315/15,2015,ST05315.EN15.pdf,1/15/2015,GER + FRA,
ST-5331/15,5331/15,5331/15,2015,2012-0011-DP-Regulation-EDPB-Cases-st05331.en15.pdf,1/21/2015,Presidency,
ST-5331/15,5331/15,5331/15,2015,20150121_5331 15_PRES_EDPB.pdf,1/21/2015,Presidency,
ST-5545/15,5545/15,5545/15,2015,2012-0011-DP-Regulation-OneStopShop-st05545.en15.pdf,1/23/2015,IRL,
ST-5569/15,5569/15,5569/15,2015,2012-0011-DP-Regulation-Art9a-CriminalConvictions-st05569.en15.pdf,1/23/2015,SWE,
ST-5571/15,5571/15,5571/15,2015,ST05571 EN15.pdf,1/23/2015,AUT,
ST-5572/15,5572/15,5572/15,2015,ST05572.EN15.PDF,1/23/2015,UK,
ST-5627/15,5627/15,5627/15,2015,2015 02 02 st05627.en15 One stop.pdf,2/2/2015,Presidency,
ST-17072/1/14-REV1,17072/14,17072/1/14,2015,20150203_17072 114_PRES_ChapterII.pdf,2/3/2015,Presidency,
ST-14707/2/14-REV2,14707/14,14707/2/14,2015,2015 02 18DP-Regulation-Consent-DE-st14707-re02.en14.pdf,2/4/2015,GER,
ST-6032/15,6032/15,6032/15,2015,2015 02 18 DP-Regulation-RightToBeForgotten-DisputeSettlement-st06032.en15.pdf,2/9/2015,GER,
ST-5627/1/15-REV1,5627/15,5627/1/15,2015,2015 02 18DP-RegulationOneStopShop-st05627-re01.en15.pdf,2/11/2015,Presidency,
ST-14707/3/14-REV3,14707/14,14707/3/14,2015,2015 02 18DP-Regulation-Consent-DE-st14707-re03.en14.pdf,2/17/2015,GER,
ST-17072/2/14-REV2,17072/14,17072/2/14,2015,st17072-re02.en14.pdf,2/18/2015,Presidency,
ST-6286/15,6286/15,6286/15,2015,OSS LET 19022015 st06286.en15.docx-1.pdf,2/19/2015,Presidency,